multiplexor.vcd
$date
	Wed Sep 21 02:52:48 2016
$end
$version
	Icarus Verilog
$end
$timescale
	1ps
$end
$scope module behavioralMultiplexer $end
$var wire 2 ! address [1:0] $end
$var wire 1 " address0 $end
$var wire 1 # address1 $end
$var wire 1 $ in0 $end
$var wire 1 % in1 $end
$var wire 1 & in2 $end
$var wire 1 ' in3 $end
$var wire 4 ( inputs [3:0] $end
$var wire 1 ) out $end
$upscope $end
$scope module testMultiplexer $end
$var wire 1 * out $end
$var reg 1 + address0 $end
$var reg 1 , address1 $end
$var reg 3 - i1 [2:0] $end
$var reg 3 . i2 [2:0] $end
$var reg 3 / i3 [2:0] $end
$var reg 3 0 i4 [2:0] $end
$var reg 3 1 i5 [2:0] $end
$var reg 3 2 i6 [2:0] $end
$var reg 1 3 in0 $end
$var reg 1 4 in1 $end
$var reg 1 5 in2 $end
$var reg 1 6 in3 $end
$scope module multiplexor $end
$var wire 1 7 address0 $end
$var wire 1 8 address1 $end
$var wire 1 9 in0 $end
$var wire 1 : in1 $end
$var wire 1 ; in2 $end
$var wire 1 < in3 $end
$var wire 1 = n_address0 $end
$var wire 1 > n_address1 $end
$var wire 1 * out $end
$var wire 1 ? subout1 $end
$var wire 1 @ subout2 $end
$var wire 1 A subout3 $end
$var wire 1 B subout4 $end
$upscope $end
$upscope $end
$enddefinitions $end
#0
$dumpvars
zB
zA
z@
z?
z>
z=
0<
0;
0:
09
08
07
06
05
04
03
b0 2
b0 1
b0 0
b0 /
b0 .
b0 -
0,
0+
z*
x)
bz (
z'
z&
z%
z$
z#
z"
bz !
$end
#50000
0B
0A
0@
0?
1=
1>
#100000
0*
#1000000
1,
18
b1 2
#1050000
0>
#2000000
0,
08
1+
17
b1 1
b0 2
#2050000
1>
0=
#3000000
1,
18
b1 2
#3050000
0>
#4000000
0,
08
0+
07
16
1<
b1 0
b0 1
b0 2
#4050000
1>
1=
#5000000
1,
18
b1 2
#5050000
0>
#6000000
0,
08
1+
17
b1 1
b0 2
#6050000
1>
0=
#7000000
1,
18
b1 2
#7050000
0>
1B
#7100000
1*
#8000000
0,
08
0+
07
06
0<
15
1;
b1 /
b0 0
b0 1
b0 2
#8050000
1>
1=
0B
#8100000
0*
#9000000
1,
18
b1 2
#9050000
0>
1A
#9100000
1*
#10000000
0,
08
1+
17
b1 1
b0 2
#10050000
1>
0A
0=
#10100000
0*
#11000000
1,
18
b1 2
#11050000
0>
#12000000
0,
08
0+
07
16
1<
b1 0
b0 1
b0 2
#12050000
1>
1=
#13000000
1,
18
b1 2
#13050000
0>
1A
#13100000
1*
#14000000
0,
08
1+
17
b1 1
b0 2
#14050000
1>
0A
0=
#14100000
0*
#15000000
1,
18
b1 2
#15050000
0>
1B
#15100000
1*
#16000000
0,
08
0+
07
06
0<
05
0;
14
1:
b1 .
b0 /
b0 0
b0 1
b0 2
#16050000
1>
1=
0B
#16100000
0*
#17000000
1,
18
b1 2
#17050000
0>
#18000000
0,
08
1+
17
b1 1
b0 2
#18050000
1>
0=
#18100000
1@
#18150000
1*
#19000000
1,
18
b1 2
#19050000
0>
#19100000
0@
#19150000
0*
#20000000
0,
08
0+
07
16
1<
b1 0
b0 1
b0 2
#20050000
1>
1=
#21000000
1,
18
b1 2
#21050000
0>
#22000000
0,
08
1+
17
b1 1
b0 2
#22050000
1>
0=
#22100000
1@
#22150000
1*
#23000000
1,
18
b1 2
#23050000
0>
1B
#23100000
0@
#24000000
0,
08
0+
07
06
0<
15
1;
b1 /
b0 0
b0 1
b0 2
#24050000
1>
1=
0B
#24100000
0*
#25000000
1,
18
b1 2
#25050000
0>
1A
#25100000
1*
#26000000
0,
08
1+
17
b1 1
b0 2
#26050000
1>
0A
0=
#26100000
1@
0*
#26150000
1*
#27000000
1,
18
b1 2
#27050000
0>
#27100000
0@
#27150000
0*
#28000000
0,
08
0+
07
16
1<
b1 0
b0 1
b0 2
#28050000
1>
1=
#29000000
1,
18
b1 2
#29050000
0>
1A
#29100000
1*
#30000000
0,
08
1+
17
b1 1
b0 2
#30050000
1>
0A
0=
#30100000
1@
0*
#30150000
1*
#31000000
1,
18
b1 2
#31050000
0>
1B
#31100000
0@
#32000000
0,
08
0+
07
06
0<
05
0;
04
0:
13
19
b1 -
b0 .
b0 /
b0 0
b0 1
b0 2
#32050000
1>
1=
0B
#32100000
1?
0*
#32150000
1*
#33000000
1,
18
b1 2
#33050000
0>
#33100000
0?
#33150000
0*
#34000000
0,
08
1+
17
b1 1
b0 2
#34050000
1>
0=
#35000000
1,
18
b1 2
#35050000
0>
#36000000
0,
08
0+
07
16
1<
b1 0
b0 1
b0 2
#36050000
1>
1=
#36100000
1?
#36150000
1*
#37000000
1,
18
b1 2
#37050000
0>
#37100000
0?
#37150000
0*
#38000000
0,
08
1+
17
b1 1
b0 2
#38050000
1>
0=
#39000000
1,
18
b1 2
#39050000
0>
1B
#39100000
1*
#40000000
0,
08
0+
07
06
0<
15
1;
b1 /
b0 0
b0 1
b0 2
#40050000
1>
1=
0B
#40100000
1?
0*
#40150000
1*
#41000000
1,
18
b1 2
#41050000
0>
1A
#41100000
0?
#42000000
0,
08
1+
17
b1 1
b0 2
#42050000
1>
0A
0=
#42100000
0*
#43000000
1,
18
b1 2
#43050000
0>
#44000000
0,
08
0+
07
16
1<
b1 0
b0 1
b0 2
#44050000
1>
1=
#44100000
1?
#44150000
1*
#45000000
1,
18
b1 2
#45050000
0>
1A
#45100000
0?
#46000000
0,
08
1+
17
b1 1
b0 2
#46050000
1>
0A
0=
#46100000
0*
#47000000
1,
18
b1 2
#47050000
0>
1B
#47100000
1*
#48000000
0,
08
0+
07
06
0<
05
0;
14
1:
b1 .
b0 /
b0 0
b0 1
b0 2
#48050000
1>
1=
0B
#48100000
1?
0*
#48150000
1*
#49000000
1,
18
b1 2
#49050000
0>
#49100000
0?
#49150000
0*
#50000000
0,
08
1+
17
b1 1
b0 2
#50050000
1>
0=
#50100000
1@
#50150000
1*
#51000000
1,
18
b1 2
#51050000
0>
#51100000
0@
#51150000
0*
#52000000
0,
08
0+
07
16
1<
b1 0
b0 1
b0 2
#52050000
1>
1=
#52100000
1?
#52150000
1*
#53000000
1,
18
b1 2
#53050000
0>
#53100000
0?
#53150000
0*
#54000000
0,
08
1+
17
b1 1
b0 2
#54050000
1>
0=
#54100000
1@
#54150000
1*
#55000000
1,
18
b1 2
#55050000
0>
1B
#55100000
0@
#56000000
0,
08
0+
07
06
0<
15
1;
b1 /
b0 0
b0 1
b0 2
#56050000
1>
1=
0B
#56100000
1?
0*
#56150000
1*
#57000000
1,
18
b1 2
#57050000
0>
1A
#57100000
0?
#58000000
0,
08
1+
17
b1 1
b0 2
#58050000
1>
0A
0=
#58100000
1@
0*
#58150000
1*
#59000000
1,
18
b1 2
#59050000
0>
#59100000
0@
#59150000
0*
#60000000
0,
08
0+
07
16
1<
b1 0
b0 1
b0 2
#60050000
1>
1=
#60100000
1?
#60150000
1*
#61000000
1,
18
b1 2
#61050000
0>
1A
#61100000
0?
#62000000
0,
08
1+
17
b1 1
b0 2
#62050000
1>
0A
0=
#62100000
1@
0*
#62150000
1*
#63000000
1,
18
b1 2
#63050000
0>
1B
#63100000
0@
#64000000
b10 -
b10 .
b10 /
b10 0
b10 1
b10 2
