multiplexer_trace.vcd
$date
	Tue Sep 20 01:14:08 2016
$end
$version
	Icarus Verilog
$end
$timescale
	1ps
$end
$scope module structuralMultiplexer $end
$var wire 1 ! address0 $end
$var wire 1 " address1 $end
$var wire 1 # in0 $end
$var wire 1 $ in1 $end
$var wire 1 % in2 $end
$var wire 1 & in3 $end
$var wire 1 ' out $end
$upscope $end
$scope module testMultiplexer $end
$var wire 1 ( bout $end
$var reg 1 ) addr0 $end
$var reg 1 * addr1 $end
$var reg 1 + in0 $end
$var reg 1 , in1 $end
$var reg 1 - in2 $end
$var reg 1 . in3 $end
$var reg 7 / v [6:0] $end
$scope module bmultiplexer $end
$var wire 2 0 address [1:0] $end
$var wire 1 1 address0 $end
$var wire 1 2 address1 $end
$var wire 1 3 in0 $end
$var wire 1 4 in1 $end
$var wire 1 5 in2 $end
$var wire 1 6 in3 $end
$var wire 4 7 inputs [3:0] $end
$var wire 1 ( out $end
$upscope $end
$upscope $end
$enddefinitions $end
#0
$dumpvars
b0 7
06
05
04
03
02
01
b0 0
b0 /
0.
0-
0,
0+
0*
0)
0(
z'
z&
z%
z$
z#
z"
z!
$end
#1000000
1+
13
1(
b1 7
b1 /
#2000000
1,
14
0+
03
0(
b10 7
b10 /
#3000000
1+
13
1(
b11 7
b11 /
#4000000
1-
15
0,
04
0+
03
0(
b100 7
b100 /
#5000000
1+
13
1(
b101 7
b101 /
#6000000
1,
14
0+
03
0(
b110 7
b110 /
#7000000
1+
13
1(
b111 7
b111 /
#8000000
1.
16
0-
05
0,
04
0+
03
0(
b1000 7
b1000 /
#9000000
1+
13
1(
b1001 7
b1001 /
#10000000
1,
14
0+
03
0(
b1010 7
b1010 /
#11000000
1+
13
1(
b1011 7
b1011 /
#12000000
1-
15
0,
04
0+
03
0(
b1100 7
b1100 /
#13000000
1+
13
1(
b1101 7
b1101 /
#14000000
1,
14
0+
03
0(
b1110 7
b1110 /
#15000000
1+
13
1(
b1111 7
b1111 /
#16000000
1)
11
b1 0
0.
06
0-
05
0,
04
0+
03
0(
b0 7
b10000 /
#17000000
1+
13
b1 7
b10001 /
#18000000
1,
14
1(
0+
03
b10 7
b10010 /
#19000000
1+
13
b11 7
b10011 /
#20000000
1-
15
0,
04
0(
0+
03
b100 7
b10100 /
#21000000
1+
13
b101 7
b10101 /
#22000000
1,
14
1(
0+
03
b110 7
b10110 /
#23000000
1+
13
b111 7
b10111 /
#24000000
1.
16
0-
05
0,
04
0(
0+
03
b1000 7
b11000 /
#25000000
1+
13
b1001 7
b11001 /
#26000000
1,
14
1(
0+
03
b1010 7
b11010 /
#27000000
1+
13
b1011 7
b11011 /
#28000000
1-
15
0,
04
0(
0+
03
b1100 7
b11100 /
#29000000
1+
13
b1101 7
b11101 /
#30000000
1,
14
1(
0+
03
b1110 7
b11110 /
#31000000
1+
13
b1111 7
b11111 /
#32000000
1*
12
0)
01
b10 0
0.
06
0-
05
0,
04
0(
0+
03
b0 7
b100000 /
#33000000
1+
13
b1 7
b100001 /
#34000000
1,
14
0+
03
b10 7
b100010 /
#35000000
1+
13
b11 7
b100011 /
#36000000
1-
15
1(
0,
04
0+
03
b100 7
b100100 /
#37000000
1+
13
b101 7
b100101 /
#38000000
1,
14
0+
03
b110 7
b100110 /
#39000000
1+
13
b111 7
b100111 /
#40000000
1.
16
0-
05
0(
0,
04
0+
03
b1000 7
b101000 /
#41000000
1+
13
b1001 7
b101001 /
#42000000
1,
14
0+
03
b1010 7
b101010 /
#43000000
1+
13
b1011 7
b101011 /
#44000000
1-
15
1(
0,
04
0+
03
b1100 7
b101100 /
#45000000
1+
13
b1101 7
b101101 /
#46000000
1,
14
0+
03
b1110 7
b101110 /
#47000000
1+
13
b1111 7
b101111 /
#48000000
1)
11
b11 0
0.
06
0-
05
0(
0,
04
0+
03
b0 7
b110000 /
#49000000
1+
13
b1 7
b110001 /
#50000000
1,
14
0+
03
b10 7
b110010 /
#51000000
1+
13
b11 7
b110011 /
#52000000
1-
15
0,
04
0+
03
b100 7
b110100 /
#53000000
1+
13
b101 7
b110101 /
#54000000
1,
14
0+
03
b110 7
b110110 /
#55000000
1+
13
b111 7
b110111 /
#56000000
1.
16
1(
0-
05
0,
04
0+
03
b1000 7
b111000 /
#57000000
1+
13
b1001 7
b111001 /
#58000000
1,
14
0+
03
b1010 7
b111010 /
#59000000
1+
13
b1011 7
b111011 /
#60000000
1-
15
0,
04
0+
03
b1100 7
b111100 /
#61000000
1+
13
b1101 7
b111101 /
#62000000
1,
14
0+
03
b1110 7
b111110 /
#63000000
1+
13
b1111 7
b111111 /
#64000000
b1000000 /
