multiplexer_results.vcd
$date
	Sat Sep 24 19:50:11 2016
$end
$version
	Icarus Verilog
$end
$timescale
	1ps
$end
$scope module behavioralMultiplexer $end
$var wire 2 ! address [1:0] $end
$var wire 1 " address0 $end
$var wire 1 # address1 $end
$var wire 1 $ in0 $end
$var wire 1 % in1 $end
$var wire 1 & in2 $end
$var wire 1 ' in3 $end
$var wire 4 ( inputs [3:0] $end
$var wire 1 ) out $end
$upscope $end
$scope module testMultiplexer $end
$var wire 1 * out $end
$var reg 1 + address0 $end
$var reg 1 , address1 $end
$var reg 1 - in0 $end
$var reg 1 . in1 $end
$var reg 1 / in2 $end
$var reg 1 0 in3 $end
$scope module multiplexer $end
$var wire 1 1 address0 $end
$var wire 1 2 address1 $end
$var wire 1 3 in0 $end
$var wire 1 4 in1 $end
$var wire 1 5 in2 $end
$var wire 1 6 in3 $end
$var wire 1 7 na0 $end
$var wire 1 8 na1 $end
$var wire 1 * out $end
$var wire 1 9 out1 $end
$var wire 1 : out2 $end
$var wire 1 ; out3 $end
$var wire 1 < out4 $end
$upscope $end
$upscope $end
$enddefinitions $end
#0
$dumpvars
z<
z;
z:
z9
z8
z7
06
05
04
03
12
11
00
0/
0.
0-
1,
1+
z*
x)
bz (
z'
z&
z%
z$
z#
z"
bz !
$end
#50000
0<
0;
0:
09
07
08
#100000
0*
#1000000
10
16
#1050000
1<
#1100000
1*
#2000000
1/
15
#3000000
0/
05
1.
14
#4000000
1/
15
#5000000
00
06
0.
04
#5050000
0<
#5100000
0*
#6000000
1.
14
#7000000
0/
05
#8000000
0.
04
1-
13
#9000000
10
16
#9050000
1<
#9100000
1*
#10000000
1/
15
#11000000
0/
05
1.
14
#12000000
1/
15
#13000000
00
06
0.
04
#13050000
0<
#13100000
0*
#14000000
1.
14
#15000000
0/
05
#16000000
0.
04
0-
03
0,
02
#16050000
18
#17000000
10
16
#18000000
1/
15
#19000000
0/
05
1.
14
#19050000
1:
#19100000
1*
#20000000
1/
15
#21000000
00
06
0.
04
#21050000
0:
#21100000
0*
#22000000
1.
14
#22050000
1:
#22100000
1*
#23000000
0/
05
#24000000
0.
04
1-
13
#24050000
0:
#24100000
0*
#25000000
10
16
#26000000
1/
15
#27000000
0/
05
1.
14
#27050000
1:
#27100000
1*
#28000000
1/
15
#29000000
00
06
0.
04
#29050000
0:
#29100000
0*
#30000000
1.
14
#30050000
1:
#30100000
1*
#31000000
0/
05
#32000000
0.
04
0-
03
1,
12
0+
01
#32050000
08
17
0:
#32100000
0*
#33000000
10
16
#34000000
1/
15
#34050000
1;
#34100000
1*
#35000000
0/
05
1.
14
#35050000
0;
#35100000
0*
#36000000
1/
15
#36050000
1;
#36100000
1*
#37000000
00
06
0.
04
#38000000
1.
14
#39000000
0/
05
#39050000
0;
#39100000
0*
#40000000
0.
04
1-
13
#41000000
10
16
#42000000
1/
15
#42050000
1;
#42100000
1*
#43000000
0/
05
1.
14
#43050000
0;
#43100000
0*
#44000000
1/
15
#44050000
1;
#44100000
1*
#45000000
00
06
0.
04
#46000000
1.
14
#47000000
0/
05
#47050000
0;
#47100000
0*
#48000000
0.
04
0-
03
0,
02
#48050000
18
#49000000
10
16
#50000000
1/
15
#51000000
0/
05
1.
14
#52000000
1/
15
#53000000
00
06
0.
04
#54000000
1.
14
#55000000
0/
05
#56000000
0.
04
1-
13
#56050000
19
#56100000
1*
#57000000
10
16
#58000000
1/
15
#59000000
0/
05
1.
14
#60000000
1/
15
#61000000
00
06
0.
04
#62000000
1.
14
#63000000
0/
05
