multiplexer.vcd
$date
	Fri Sep 23 00:14:58 2016
$end
$version
	Icarus Verilog
$end
$timescale
	1ps
$end
$scope module behavioralMultiplexer $end
$var wire 2 ! address [1:0] $end
$var wire 1 " address0 $end
$var wire 1 # address1 $end
$var wire 1 $ in0 $end
$var wire 1 % in1 $end
$var wire 1 & in2 $end
$var wire 1 ' in3 $end
$var wire 4 ( inputs [3:0] $end
$var wire 1 ) out $end
$upscope $end
$scope module testMultiplexer $end
$var wire 1 * out $end
$var reg 1 + address0 $end
$var reg 1 , address1 $end
$var reg 1 - in0 $end
$var reg 1 . in1 $end
$var reg 1 / in2 $end
$var reg 1 0 in3 $end
$scope module multiplexer $end
$var wire 1 1 address0 $end
$var wire 1 2 address1 $end
$var wire 1 3 in0 $end
$var wire 1 4 in1 $end
$var wire 1 5 in2 $end
$var wire 1 6 in3 $end
$var wire 1 7 nS0 $end
$var wire 1 8 nS1 $end
$var wire 1 * out $end
$var wire 1 9 out0 $end
$var wire 1 : out1 $end
$var wire 1 ; out2 $end
$var wire 1 < out3 $end
$upscope $end
$upscope $end
$enddefinitions $end
#0
$dumpvars
z<
z;
z:
z9
18
17
06
05
04
03
02
01
00
0/
0.
0-
0,
0+
z*
x)
bz (
z'
z&
z%
z$
z#
z"
bz !
$end
#50000
0<
0;
0:
09
#100000
0*
#250000
10
16
#500000
00
06
1/
15
#750000
10
16
#1000000
00
06
0/
05
1.
14
#1250000
10
16
#1500000
00
06
1/
15
#1750000
10
16
#2000000
00
06
0/
05
0.
04
1-
13
#2050000
19
#2100000
1*
#2250000
10
16
#2500000
00
06
1/
15
#2750000
10
16
#3000000
00
06
0/
05
1.
14
#3250000
10
16
#3500000
00
06
1/
15
#3750000
10
16
#4000000
07
1+
11
00
06
0/
05
0.
04
0-
03
#4050000
09
#4100000
0*
#4250000
10
16
#4500000
00
06
1/
15
#4750000
10
16
#5000000
00
06
0/
05
1.
14
#5050000
1:
#5100000
1*
#5250000
10
16
#5500000
00
06
1/
15
#5750000
10
16
#6000000
00
06
0/
05
0.
04
1-
13
#6050000
0:
#6100000
0*
#6250000
10
16
#6500000
00
06
1/
15
#6750000
10
16
#7000000
00
06
0/
05
1.
14
#7050000
1:
#7100000
1*
#7250000
10
16
#7500000
00
06
1/
15
#7750000
10
16
#8000000
08
17
1,
12
0+
01
00
06
0/
05
0.
04
0-
03
#8050000
0:
#8100000
0*
#8250000
10
16
#8500000
00
06
1/
15
#8550000
1;
#8600000
1*
#8750000
10
16
#9000000
00
06
0/
05
1.
14
#9050000
0;
#9100000
0*
#9250000
10
16
#9500000
00
06
1/
15
#9550000
1;
#9600000
1*
#9750000
10
16
#10000000
00
06
0/
05
0.
04
1-
13
#10050000
0;
#10100000
0*
#10250000
10
16
#10500000
00
06
1/
15
#10550000
1;
#10600000
1*
#10750000
10
16
#11000000
00
06
0/
05
1.
14
#11050000
0;
#11100000
0*
#11250000
10
16
#11500000
00
06
1/
15
#11550000
1;
#11600000
1*
#11750000
10
16
#12000000
07
1+
11
00
06
0/
05
0.
04
0-
03
#12050000
0;
#12100000
0*
#12250000
10
16
#12300000
1<
#12350000
1*
#12500000
00
06
1/
15
#12550000
0<
#12600000
0*
#12750000
10
16
#12800000
1<
#12850000
1*
#13000000
00
06
0/
05
1.
14
#13050000
0<
#13100000
0*
#13250000
10
16
#13300000
1<
#13350000
1*
#13500000
00
06
1/
15
#13550000
0<
#13600000
0*
#13750000
10
16
#13800000
1<
#13850000
1*
#14000000
00
06
0/
05
0.
04
1-
13
#14050000
0<
#14100000
0*
#14250000
10
16
#14300000
1<
#14350000
1*
#14500000
00
06
1/
15
#14550000
0<
#14600000
0*
#14750000
10
16
#14800000
1<
#14850000
1*
#15000000
00
06
0/
05
1.
14
#15050000
0<
#15100000
0*
#15250000
10
16
#15300000
1<
#15350000
1*
#15500000
00
06
1/
15
#15550000
0<
#15600000
0*
#15750000
10
16
#15800000
1<
#15850000
1*
