multiplexer_trace.vcd
$date
	Mon Sep 19 14:30:08 2016
$end
$version
	Icarus Verilog
$end
$timescale
	1ps
$end
$scope module testMultiplexer $end
$var wire 1 ! bout $end
$var wire 1 " sout $end
$var reg 1 # addr0 $end
$var reg 1 $ addr1 $end
$var reg 1 % in0 $end
$var reg 1 & in1 $end
$var reg 1 ' in2 $end
$var reg 1 ( in3 $end
$var reg 7 ) v [6:0] $end
$scope module bmultiplexer $end
$var wire 2 * address [1:0] $end
$var wire 1 + address0 $end
$var wire 1 , address1 $end
$var wire 1 - in0 $end
$var wire 1 . in1 $end
$var wire 1 / in2 $end
$var wire 1 0 in3 $end
$var wire 4 1 inputs [3:0] $end
$var wire 1 ! out $end
$upscope $end
$scope module multiplexer $end
$var wire 1 + address0 $end
$var wire 1 , address1 $end
$var wire 1 - in0 $end
$var wire 1 . in1 $end
$var wire 1 / in2 $end
$var wire 1 0 in3 $end
$var wire 1 2 naddress0 $end
$var wire 1 3 naddress1 $end
$var wire 1 " out $end
$var wire 1 4 out0 $end
$var wire 1 5 out1 $end
$var wire 1 6 out2 $end
$var wire 1 7 out3 $end
$upscope $end
$upscope $end
$enddefinitions $end
#0
$dumpvars
z7
z6
z5
z4
z3
z2
b0 1
00
0/
0.
0-
0,
0+
b0 *
b0 )
0(
0'
0&
0%
0$
0#
z"
0!
$end
#50000
04
06
05
07
12
13
#100000
0"
#1000000
1%
1-
1!
b1 1
b1 )
#1050000
14
#1100000
1"
#2000000
1&
1.
0%
0-
0!
b10 1
b10 )
#2050000
04
#2100000
0"
#3000000
1%
1-
1!
b11 1
b11 )
#3050000
14
#3100000
1"
#4000000
1'
1/
0&
0.
0%
0-
0!
b100 1
b100 )
#4050000
04
#4100000
0"
#5000000
1%
1-
1!
b101 1
b101 )
#5050000
14
#5100000
1"
#6000000
1&
1.
0%
0-
0!
b110 1
b110 )
#6050000
04
#6100000
0"
#7000000
1%
1-
1!
b111 1
b111 )
#7050000
14
#7100000
1"
#8000000
1(
10
0'
0/
0&
0.
0%
0-
0!
b1000 1
b1000 )
#8050000
04
#8100000
0"
#9000000
1%
1-
1!
b1001 1
b1001 )
#9050000
14
#9100000
1"
#10000000
1&
1.
0%
0-
0!
b1010 1
b1010 )
#10050000
04
#10100000
0"
#11000000
1%
1-
1!
b1011 1
b1011 )
#11050000
14
#11100000
1"
#12000000
1'
1/
0&
0.
0%
0-
0!
b1100 1
b1100 )
#12050000
04
#12100000
0"
#13000000
1%
1-
1!
b1101 1
b1101 )
#13050000
14
#13100000
1"
#14000000
1&
1.
0%
0-
0!
b1110 1
b1110 )
#14050000
04
#14100000
0"
#15000000
1%
1-
1!
b1111 1
b1111 )
#15050000
14
#15100000
1"
#16000000
1#
1+
b1 *
0(
00
0'
0/
0&
0.
0%
0-
0!
b0 1
b10000 )
#16050000
02
04
#16100000
0"
#17000000
1%
1-
b1 1
b10001 )
#18000000
1&
1.
1!
0%
0-
b10 1
b10010 )
#18050000
15
#18100000
1"
#19000000
1%
1-
b11 1
b10011 )
#20000000
1'
1/
0&
0.
0!
0%
0-
b100 1
b10100 )
#20050000
05
#20100000
0"
#21000000
1%
1-
b101 1
b10101 )
#22000000
1&
1.
1!
0%
0-
b110 1
b10110 )
#22050000
15
#22100000
1"
#23000000
1%
1-
b111 1
b10111 )
#24000000
1(
10
0'
0/
0&
0.
0!
0%
0-
b1000 1
b11000 )
#24050000
05
#24100000
0"
#25000000
1%
1-
b1001 1
b11001 )
#26000000
1&
1.
1!
0%
0-
b1010 1
b11010 )
#26050000
15
#26100000
1"
#27000000
1%
1-
b1011 1
b11011 )
#28000000
1'
1/
0&
0.
0!
0%
0-
b1100 1
b11100 )
#28050000
05
#28100000
0"
#29000000
1%
1-
b1101 1
b11101 )
#30000000
1&
1.
1!
0%
0-
b1110 1
b11110 )
#30050000
15
#30100000
1"
#31000000
1%
1-
b1111 1
b11111 )
#32000000
1$
1,
0#
0+
b10 *
0(
00
0'
0/
0&
0.
0!
0%
0-
b0 1
b100000 )
#32050000
03
12
05
#32100000
0"
#33000000
1%
1-
b1 1
b100001 )
#34000000
1&
1.
0%
0-
b10 1
b100010 )
#35000000
1%
1-
b11 1
b100011 )
#36000000
1'
1/
1!
0&
0.
0%
0-
b100 1
b100100 )
#36050000
16
#36100000
1"
#37000000
1%
1-
b101 1
b100101 )
#38000000
1&
1.
0%
0-
b110 1
b100110 )
#39000000
1%
1-
b111 1
b100111 )
#40000000
1(
10
0'
0/
0!
0&
0.
0%
0-
b1000 1
b101000 )
#40050000
06
#40100000
0"
#41000000
1%
1-
b1001 1
b101001 )
#42000000
1&
1.
0%
0-
b1010 1
b101010 )
#43000000
1%
1-
b1011 1
b101011 )
#44000000
1'
1/
1!
0&
0.
0%
0-
b1100 1
b101100 )
#44050000
16
#44100000
1"
#45000000
1%
1-
b1101 1
b101101 )
#46000000
1&
1.
0%
0-
b1110 1
b101110 )
#47000000
1%
1-
b1111 1
b101111 )
#48000000
1#
1+
b11 *
0(
00
0'
0/
0!
0&
0.
0%
0-
b0 1
b110000 )
#48050000
02
06
#48100000
0"
#49000000
1%
1-
b1 1
b110001 )
#50000000
1&
1.
0%
0-
b10 1
b110010 )
#51000000
1%
1-
b11 1
b110011 )
#52000000
1'
1/
0&
0.
0%
0-
b100 1
b110100 )
#53000000
1%
1-
b101 1
b110101 )
#54000000
1&
1.
0%
0-
b110 1
b110110 )
#55000000
1%
1-
b111 1
b110111 )
#56000000
1(
10
1!
0'
0/
0&
0.
0%
0-
b1000 1
b111000 )
#56050000
17
#56100000
1"
#57000000
1%
1-
b1001 1
b111001 )
#58000000
1&
1.
0%
0-
b1010 1
b111010 )
#59000000
1%
1-
b1011 1
b111011 )
#60000000
1'
1/
0&
0.
0%
0-
b1100 1
b111100 )
#61000000
1%
1-
b1101 1
b111101 )
#62000000
1&
1.
0%
0-
b1110 1
b111110 )
#63000000
1%
1-
b1111 1
b111111 )
#64000000
b1000000 )
